{
  "log": {
    "version": "1.2",
    "creator": {
      "name": "Firefox",
      "version": "78.0.2"
    },
    "browser": {
      "name": "Firefox",
      "version": "78.0.2"
    },
    "pages": [
      {
        "startedDateTime": "2020-12-11T02:52:23.593+13:00",
        "id": "page_9",
        "title": "Store administration",
        "pageTimings": {
          "onContentLoad": 974,
          "onLoad": 1075
        }
      }
    ],
    "entries": [
      {
        "pageref": "page_9",
        "startedDateTime": "2020-12-11T02:52:23.593+13:00",
        "request": {
          "bodySize": 569,
          "method": "POST",
          "url": "http://localhost:8080/admin/configuration/saveConfiguration.html",
          "httpVersion": "HTTP/1.1",
          "headers": [
            {
              "name": "Host",
              "value": "localhost:8080"
            },
            {
              "name": "User-Agent",
              "value": "Mozilla/5.0 (Windows NT 10.0; Win64; x64; rv:78.0) Gecko/20100101 Firefox/78.0"
            },
            {
              "name": "Accept",
              "value": "text/html,application/xhtml+xml,application/xml;q=0.9,image/webp,*/*;q=0.8"
            },
            {
              "name": "Accept-Language",
              "value": "en-US,en;q=0.5"
            },
            {
              "name": "Accept-Encoding",
              "value": "gzip, deflate"
            },
            {
              "name": "Content-Type",
              "value": "application/x-www-form-urlencoded"
            },
            {
              "name": "Content-Length",
              "value": "569"
            },
            {
              "name": "Origin",
              "value": "http://localhost:8080"
            },
            {
              "name": "DNT",
              "value": "1"
            },
            {
              "name": "Connection",
              "value": "keep-alive"
            },
            {
              "name": "Referer",
              "value": "http://localhost:8080/admin/configuration/accounts.html"
            },
            {
              "name": "Cookie",
              "value": "cookieconsent_status=dismiss; screenResolution=1920x1080; user_token=; JSESSIONID=node017m1evoh8720m1r5y44c7c4lh91.node0"
            },
            {
              "name": "Upgrade-Insecure-Requests",
              "value": "1"
            },
            {
              "name": "Pragma",
              "value": "no-cache"
            },
            {
              "name": "Cache-Control",
              "value": "no-cache"
            }
          ],
          "cookies": [
            {
              "name": "cookieconsent_status",
              "value": "dismiss"
            },
            {
              "name": "screenResolution",
              "value": "1920x1080"
            },
            {
              "name": "user_token",
              "value": ""
            },
            {
              "name": "JSESSIONID",
              "value": "node017m1evoh8720m1r5y44c7c4lh91.node0"
            }
          ],
          "queryString": [],
          "headersSize": 726,
          "postData": {
            "mimeType": "application/x-www-form-urlencoded",
            "params": [
              {
                "name": "merchantConfigs[0].value",
                "value": "_____##"
              },
              {
                "name": "merchantConfigs[0].key",
                "value": "facebook_page_url"
              },
              {
                "name": "merchantConfigs[0].id",
                "value": ""
              },
              {
                "name": "merchantConfigs[1].value",
                "value": "UC-######"
              },
              {
                "name": "merchantConfigs[1].key",
                "value": "google_analytics_url"
              },
              {
                "name": "merchantConfigs[1].id",
                "value": ""
              },
              {
                "name": "merchantConfigs[2].value",
                "value": "###___"
              },
              {
                "name": "merchantConfigs[2].key",
                "value": "instagram"
              },
              {
                "name": "merchantConfigs[2].id",
                "value": ""
              },
              {
                "name": "merchantConfigs[3].value",
                "value": "___####"
              },
              {
                "name": "merchantConfigs[3].key",
                "value": "pinterest"
              },
              {
                "name": "merchantConfigs[3].id",
                "value": ""
              },
              {
                "name": "merchantConfigs[4].value",
                "value": "_____+++___"
              },
              {
                "name": "merchantConfigs[4].key",
                "value": "twitter_handle"
              },
              {
                "name": "merchantConfigs[4].id",
                "value": ""
              }
            ],
            "text": "merchantConfigs%5B0%5D.value=_____%23%23&merchantConfigs%5B0%5D.key=facebook_page_url&merchantConfigs%5B0%5D.id=&merchantConfigs%5B1%5D.value=UC-%23%23%23%23%23%23&merchantConfigs%5B1%5D.key=google_analytics_url&merchantConfigs%5B1%5D.id=&merchantConfigs%5B2%5D.value=%23%23%23___&merchantConfigs%5B2%5D.key=instagram&merchantConfigs%5B2%5D.id=&merchantConfigs%5B3%5D.value=___%23%23%23%23&merchantConfigs%5B3%5D.key=pinterest&merchantConfigs%5B3%5D.id=&merchantConfigs%5B4%5D.value=_____%2B%2B%2B___&merchantConfigs%5B4%5D.key=twitter_handle&merchantConfigs%5B4%5D.id="
          }
        },
        "response": {
          "status": 200,
          "statusText": "OK",
          "httpVersion": "HTTP/1.1",
          "headers": [
            {
              "name": "Date",
              "value": "Thu, 10 Dec 2020 13:52:23 GMT"
            },
            {
              "name": "Access-Control-Allow-Methods",
              "value": "POST, GET, PUT, OPTIONS, DELETE, PATCH"
            },
            {
              "name": "Access-Control-Allow-Origin",
              "value": "http://localhost:8080"
            },
            {
              "name": "Access-Control-Allow-Headers",
              "value": "X-Auth-Token, Content-Type, Authorization"
            },
            {
              "name": "Access-Control-Allow-Credentials",
              "value": "true"
            },
            {
              "name": "Content-Language",
              "value": "en-US"
            },
            {
              "name": "Content-Type",
              "value": "text/html;charset=utf-8"
            },
            {
              "name": "Cache-Control",
              "value": "no-cache"
            },
            {
              "name": "Pragma",
              "value": "no-cache"
            },
            {
              "name": "Expires",
              "value": "Wed, 31 Dec 1969 23:59:59 GMT"
            },
            {
              "name": "X-Content-Type-Options",
              "value": "nosniff"
            },
            {
              "name": "X-XSS-Protection",
              "value": "1; mode=block"
            },
            {
              "name": "X-Frame-Options",
              "value": "DENY"
            },
            {
              "name": "Content-Length",
              "value": "20315"
            },
            {
              "name": "Server",
              "value": "Jetty(9.4.9.v20180320)"
            }
          ],
          "cookies": [],
          "content": {
            "mimeType": "text/html; charset=utf-8",
            "size": 20315,
            "text": "\r\n\r\n\r\n\r\n\r\n\r\n\r\n\r\n \r\n\r\n\r\n \r\n<!DOCTYPE html PUBLIC \"-//W3C//DTD XHTML 1.0 Transitional//EN\" \"http://www.w3.org/TR/xhtml1/DTD/xhtml1-transitional.dtd\">\r\n  \r\n \r\n \r\n  \r\n  \r\n \r\n \r\n <html xmlns=\"http://www.w3.org/1999/xhtml\"> \r\n \r\n \r\n     <head>\r\n     \r\n     \r\n        \t \t<meta http-equiv=\"Content-Type\" content=\"text/html; charset=UTF-8\">\r\n        \t \t<meta charset=\"utf-8\">\r\n    \t\t\t<title>Store administration</title>\r\n    \t\t\t<meta name=\"viewport\" content=\"width=device-width, initial-scale=1.0\">\r\n    \t\t\t<meta name=\"description\" content=\"\">\r\n    \t\t\t<meta name=\"author\" content=\"\">\r\n    \t\t\t\r\n    \t\t\t<script src=\"/resources/js/bootstrap/jquery.js\"></script>\r\n    \t\t\t<script src=\"/resources/js/jquery.friendurl.min.js\"></script>\r\n \r\n  \r\n                \r\n\r\n\r\n\r\n\r\n\r\n\r\n    <!-- Le styles -->\r\n    \r\n    <link href=\"/resources/css/bootstrap/css/sm-bootstrap.css\" rel=\"stylesheet\">\r\n    <link href=\"/resources/css/bootstrap/css/sm-bootstrap-responsive.css\" rel=\"stylesheet\">\r\n    \r\n \r\n \r\n\r\n\r\n    <!-- Le HTML5 shim, for IE6-8 support of HTML5 elements -->\r\n    <!--[if lt IE 9]>\r\n      <!--<script src=\"http://html5shim.googlecode.com/svn/trunk/html5.js\"></script>-->\r\n    <![endif]-->\r\n\t<link href=\"/resources/css/shopizer-admin.css\" rel=\"stylesheet\">\r\n\r\n\r\n    <script src=\"/resources/js/jquery.showLoading.min.js\"></script>\r\n\t<link href=\"/resources/css/showLoading.css\" rel=\"stylesheet\">\r\n\r\n\r\n    <script>var isomorphicDir=\"/resources/smart-client/\";</script>\r\n    <script SRC=\"/resources/smart-client/system/modules/ISC_Core.js\"></script>\r\n    <script SRC=\"/resources/smart-client/system/modules/ISC_Foundation.js\"></script>\r\n    <script SRC=\"/resources/smart-client/system/modules/ISC_Containers.js\"></script>\r\n    <script SRC=\"/resources/smart-client/system/modules/ISC_Grids.js\"></script>\r\n    <script SRC=\"/resources/smart-client/system/modules/ISC_Forms.js\"></script>\r\n    <script SRC=\"/resources/smart-client/system/modules/ISC_DataBinding.js\"></script>\r\n    <script SRC=\"/resources/smart-client/skins/Graphite/load_skin.js\"></script>\r\n\r\n\r\n                \r\n                \r\n\r\n\r\n \t\r\n \t\r\n \t</head>\r\n \r\n \t<body class=\"body\">\r\n\r\n     <p>&nbsp;</p>\r\n\r\n<div class=\"sm\">\r\n\t<div class=\"container\">\r\n\r\n\t\t<div class=\"row\">\r\n\r\n  \t\t\t<div class=\"span4\"><a class=\"brand\" href=\"#\"><img src=\"/resources/img/shopizer_small.jpg\"/></a></div>\r\n\r\n  \t\t\t<div class=\"span4 offset4\">\r\n\r\n\t\t\t\t\t<div class=\"btn-group pull-right\">\r\n\t\t\t\t\t\t<div class=\"nav-collapse\">\r\n\t\t\t\t\t\t\t\t\t\t\t\t\r\n\t\t\t\t\t\t\r\n\t\t\t\t\t\t\t<ul class=\"nav pull-right\" style=\"z-index:500000;position:relative\">\r\n\t\t\t\t\t\t\t\t<li class=\"dropdown\">\r\n\t\t\t\t\t\t\t\t\t\r\n\t\t\t\t\t\t\t\t\t<a data-toggle=\"dropdown\" class=\"dropdown-toggle\" href=\"#\">\r\n\t\t\t\t\t\t\t\t\t\t<i class=\"icon-user\"></i> \r\n\t\t\t\t\t\t\t\t\t\tadmin&#64;shopizer&#46;com\r\n\t\t\t\t\t\t\t\t\t\t<b class=\"caret\"></b>\r\n\t\t\t\t\t\t\t\t\t</a>\r\n\t\t\t\t\t\t\t\t\t\r\n\t\t\t\t\t\t\t\t\t<ul class=\"dropdown-menu\">\r\n\t\t\t\t\t\t\t\t\t\t<li><a href=\"/admin/users/displayUser.html\">My profile</a></li>\r\n\t\t\t\t\t\t\t\t\t\t<li class=\"divider\"></li>\r\n\t\t\t\t\t\t\t\t\t\t<li>\r\n\t\t\t\t\t\t\t\t\t\t\t\r\n\t\t\t\t\t\t\t\t\t\t\t<a href=\"/admin/logout\">Logout</a>\r\n\t\t\t\t\t\t\t\t\t\t</li>\r\n\t\t\t\t\t\t\t\t\t</ul>\r\n\t\t\t\t\t\t\t\t\t\r\n\t\t\t\t\t\t\t\t</li>\r\n\t\t\t\t\t\t   </ul>\r\n\t\t\t\t\t\t   \r\n\t\t\t\t\t\t   \r\n\t\t\t\t\t\t   \t<ul class=\"nav pull-right\" style=\"z-index:500000;position:relative\">\r\n\t\t\t\t\t\t\t\t<li class=\"dropdown\">\r\n\t\t\t\t\t\t\t\t\t\r\n\t\t\t\t\t\t\t\t\t<a data-toggle=\"dropdown\" class=\"dropdown-toggle\" href=\"#\">\r\n\t\t\t\t\t\t\t\t\t\t<i class=\"icon-globe\"></i> \r\n\t\t\t\t\t\t\t\t\t\t\tLanguage\r\n\t\t\t\t\t\t\t\t\t\t<b class=\"caret\"></b>\r\n\t\t\t\t\t\t\t\t\t</a>\r\n\t\t\t\t\t\t\t\t\t\r\n\t\t\t\t\t\t\t\t\t<ul class=\"dropdown-menu\">\r\n\t\t\t\t\t\t\t\t\t\t\r\n\t\t\t\t\t\t\t\t\t\t\t<li><a href=\"/admin?locale=en\">en</a></li>\r\n\t\t\t\t\t\t\t\t\t\t\r\n\t\t\t\t\t\t\t\t\t\t\t<li><a href=\"/admin?locale=fr\">fr</a></li>\r\n\t\t\t\t\t\t\t\t\t\t\r\n\t\t\t\t\t\t\t\t\t</ul>\r\n\t\t\t\t\t\t\t\t\t\r\n\t\t\t\t\t\t\t\t</li>\r\n\t\t\t\t\t\t   </ul>\r\n\t\t\t\t\t\t   \r\n\r\n\t\t\t\t\r\n\t\t\t\t</div><!--/.nav-collapse -->\t\r\n\r\n\t\t\t</div>\r\n\r\n  \t\t\t</div>\r\n\r\n\r\n   \r\n\t\t\r\n\t\t</div>\r\n\t\t\r\n\t</div>\r\n\r\n\t\r\n\t<div class=\"row\">&nbsp;</div>\r\n\r\n\r\n\r\n\t<div class=\"container\"> \r\n\t\t<div class=\"row\">\t\r\n\t\t\t\r\n\t\t\t<div class=\"span3\">\r\n\t\t\t\t<ul class=\"nav nav-list\">\r\n\t\t\t\t\t  \r\n\t\t\t\t\t  \t\t\t\r\n\t\t\t\t\t  \t\t\t<li >\r\n\t\t\t\t\t\t\t\t\t<a href=\"/admin/home.html\">\r\n\t\t\t\t\t\t\t\t\t\t<i class=\"icon-home\"></i>\r\n\t\t\t\t\t\t\t\t\t\t\tHome\r\n\t\t\t\t\t\t\t\t\t</a>\r\n\t\t\t\t\t  \t\t\t</li>\r\n\t\t\t\t\t  \t\t\t\r\n\t\t\t\t\t  \r\n\t\t\t\t\t  \t\t\t\r\n\t\t\t\t\t  \t\t\t<li >\r\n\t\t\t\t\t\t\t\t\t<a href=\"/admin/store/store.html\">\r\n\t\t\t\t\t\t\t\t\t\t<i class=\"icon-file\"></i>\r\n\t\t\t\t\t\t\t\t\t\t\tStore\r\n\t\t\t\t\t\t\t\t\t</a>\r\n\t\t\t\t\t  \t\t\t</li>\r\n\t\t\t\t\t  \t\t\t\r\n\t\t\t\t\t  \r\n\t\t\t\t\t  \t\t\t\r\n\t\t\t\t\t  \t\t\t<li >\r\n\t\t\t\t\t\t\t\t\t<a href=\"/admin/users/displayUser.html\">\r\n\t\t\t\t\t\t\t\t\t\t<i class=\"icon-info-sign\"></i>\r\n\t\t\t\t\t\t\t\t\t\t\tProfile\r\n\t\t\t\t\t\t\t\t\t</a>\r\n\t\t\t\t\t  \t\t\t</li>\r\n\t\t\t\t\t  \t\t\t\r\n\t\t\t\t\t  \r\n\t\t\t\t\t  \t\t\t\r\n\t\t\t\t\t  \t\t\t<li >\r\n\t\t\t\t\t\t\t\t\t<a href=\"/admin/products/products.html\">\r\n\t\t\t\t\t\t\t\t\t\t<i class=\"icon-tags\"></i>\r\n\t\t\t\t\t\t\t\t\t\t\tCatalogue\r\n\t\t\t\t\t\t\t\t\t</a>\r\n\t\t\t\t\t  \t\t\t</li>\r\n\t\t\t\t\t  \t\t\t\r\n\t\t\t\t\t  \r\n\t\t\t\t\t  \t\t\t\r\n\t\t\t\t\t  \t\t\t<li >\r\n\t\t\t\t\t\t\t\t\t<a href=\"/admin/content/pages/list.html\">\r\n\t\t\t\t\t\t\t\t\t\t<i class=\"icon-pencil\"></i>\r\n\t\t\t\t\t\t\t\t\t\t\tManage content\r\n\t\t\t\t\t\t\t\t\t</a>\r\n\t\t\t\t\t  \t\t\t</li>\r\n\t\t\t\t\t  \t\t\t\r\n\t\t\t\t\t  \r\n\t\t\t\t\t  \t\t\t\r\n\t\t\t\t\t  \t\t\t<li >\r\n\t\t\t\t\t\t\t\t\t<a href=\"/admin/shipping/shippingConfigs.html\">\r\n\t\t\t\t\t\t\t\t\t\t<i class=\"icon-plane\"></i>\r\n\t\t\t\t\t\t\t\t\t\t\tShipping\r\n\t\t\t\t\t\t\t\t\t</a>\r\n\t\t\t\t\t  \t\t\t</li>\r\n\t\t\t\t\t  \t\t\t\r\n\t\t\t\t\t  \r\n\t\t\t\t\t  \t\t\t\r\n\t\t\t\t\t  \t\t\t<li >\r\n\t\t\t\t\t\t\t\t\t<a href=\"/admin/payments/paymentMethods.html\">\r\n\t\t\t\t\t\t\t\t\t\t<i class=\"icon-cog\"></i>\r\n\t\t\t\t\t\t\t\t\t\t\tPayment\r\n\t\t\t\t\t\t\t\t\t</a>\r\n\t\t\t\t\t  \t\t\t</li>\r\n\t\t\t\t\t  \t\t\t\r\n\t\t\t\t\t  \r\n\t\t\t\t\t  \t\t\t\r\n\t\t\t\t\t  \t\t\t<li >\r\n\t\t\t\t\t\t\t\t\t<a href=\"/admin/customers/list.html\">\r\n\t\t\t\t\t\t\t\t\t\t<i class=\"icon-user\"></i>\r\n\t\t\t\t\t\t\t\t\t\t\tCustomers\r\n\t\t\t\t\t\t\t\t\t</a>\r\n\t\t\t\t\t  \t\t\t</li>\r\n\t\t\t\t\t  \t\t\t\r\n\t\t\t\t\t  \r\n\t\t\t\t\t  \t\t\t\r\n\t\t\t\t\t  \t\t\t<li >\r\n\t\t\t\t\t\t\t\t\t<a href=\"/admin/orders/list.html\">\r\n\t\t\t\t\t\t\t\t\t\t<i class=\"icon-shopping-cart\"></i>\r\n\t\t\t\t\t\t\t\t\t\t\tOrders\r\n\t\t\t\t\t\t\t\t\t</a>\r\n\t\t\t\t\t  \t\t\t</li>\r\n\t\t\t\t\t  \t\t\t\r\n\t\t\t\t\t  \r\n\t\t\t\t\t  \t\t\t\r\n\t\t\t\t\t  \t\t\t<li >\r\n\t\t\t\t\t\t\t\t\t<a href=\"/admin/tax/taxconfiguration/edit.html\">\r\n\t\t\t\t\t\t\t\t\t\t<i class=\"icon-book\"></i>\r\n\t\t\t\t\t\t\t\t\t\t\tManage taxes\r\n\t\t\t\t\t\t\t\t\t</a>\r\n\t\t\t\t\t  \t\t\t</li>\r\n\t\t\t\t\t  \t\t\t\r\n\t\t\t\t\t  \r\n\t\t\t\t\t  \t\t\t\r\n\t\t\t\t\t  \t\t\t<li >\r\n\t\t\t\t\t\t\t\t\t<a href=\"/admin/cache/cacheManagement.html\">\r\n\t\t\t\t\t\t\t\t\t\t<i class=\"icon-th\"></i>\r\n\t\t\t\t\t\t\t\t\t\t\tCache management\r\n\t\t\t\t\t\t\t\t\t</a>\r\n\t\t\t\t\t  \t\t\t</li>\r\n\t\t\t\t\t  \t\t\t\r\n\t\t\t\t\t  \r\n\t\t\t\t\t  \t\t\t\r\n\t\t\t\t\t  \t\t\t<li  class=\"active\">\r\n\t\t\t\t\t\t\t\t\t<a href=\"/admin/configuration/accounts.html\">\r\n\t\t\t\t\t\t\t\t\t\t<i class=\"icon-wrench\"></i>\r\n\t\t\t\t\t\t\t\t\t\t\tConfigurations\r\n\t\t\t\t\t\t\t\t\t</a>\r\n\t\t\t\t\t  \t\t\t</li>\r\n\t\t\t\t\t  \t\t\t\r\n\t\t\t\t\t  \r\n\t\t\t\t</ul>\r\n\t\t\t</div><!-- end span 3 -->\r\n\t\t\t\r\n\t\t\t\r\n\r\n\t\t\t<div class=\"span9\">\r\n\r\n\t\t\t\t\r\n\r\n\r\n\r\n\r\n\t\t\t\t\r\n\t\t\t\t\r\n<script>\r\n\t\r\n\r\n\t\r\n</script>\r\n\r\n\r\n<div class=\"tabbable\">\r\n\t\r\n\r\n\r\n\r\n\r\n\r\n\r\n\r\n      \t\t\t\t\r\n  \t\t\t\t\t\r\n\t\t\t\t\t\t\r\n  \t\t\t\t\t\t<ul class=\"nav nav-tabs\">\r\n  \t\t\t\t\t\t\r\n  \t\t\t\t\t\t\t\r\n  \t\t\t\t\t\t\t\r\n  \t\t\t\t\t\t\t    \r\n  \t\t\t\t\t\t\t\t\t<li id=\"accounts-conf-tab\"  class=\"active\"><a href=\"#\" id=\"accounts-conf-link\" data-toggle=\"tab\">Accounts configuration</a></li>\r\n  \t\t\t\t\t\t\t    \r\n  \t\t\t\t\t\t\t    \r\n  \t\t\t\t\t\t\t\r\n  \t\t\t\t\t\t\t\r\n  \t\t\t\t\t\t\r\n  \t\t\t\t\t\t\t\r\n  \t\t\t\t\t\t\t\r\n  \t\t\t\t\t\t\t    \r\n  \t\t\t\t\t\t\t\t\t<li id=\"email-conf-tab\" ><a href=\"#\" id=\"email-conf-link\" data-toggle=\"tab\">Email settings</a></li>\r\n  \t\t\t\t\t\t\t    \r\n  \t\t\t\t\t\t\t    \r\n  \t\t\t\t\t\t\t\r\n  \t\t\t\t\t\t\t\r\n  \t\t\t\t\t\t\r\n  \t\t\t\t\t\t\t\r\n  \t\t\t\t\t\t\t\r\n  \t\t\t\t\t\t\t    \r\n  \t\t\t\t\t\t\t\t\t<li id=\"system-configurations-tab\" ><a href=\"#\" id=\"system-configurations-link\" data-toggle=\"tab\">System configurations</a></li>\r\n  \t\t\t\t\t\t\t    \r\n  \t\t\t\t\t\t\t    \r\n  \t\t\t\t\t\t\t\r\n  \t\t\t\t\t\t\t\r\n  \t\t\t\t\t\t\r\n  \t\t\t\t\t\t</ul>\r\n  \t\t\t\t\t\t\r\n  \t\t\t\t\t\r\n\t\t<div class=\"tab-content\">\r\n  \t\t\t<div class=\"tab-pane active\" id=\"accounts-conf\">\r\n\t\t\t\t<div class=\"sm-ui-component\">\r\n\t\t\t\t\t<h3>Configuration options</h3>\t\r\n\t\t\t\t\t<br/>\r\n\t\t\t\t\t\t\r\n\t\t\t\t\t\t\t<form id=\"configuration\" action=\"/admin/configuration/saveConfiguration.html\" method=\"POST\">\r\n\t\t\t\t\t\t\t\t\r\n\t\t\t\t\t\t\t\t\t<div id=\"store.success\" class=\"alert alert-success\" style=\"display:block;\">Request completed with success</div>\r\n\t\t\t\t\t\t\t\t\t \r\n\r\n\t\t                        \t\t\r\n\t\t                        \t   <div class=\"control-group\">\r\n\t                        \t\t\t\t<label>FaceBook Page &nbsp;:&nbsp;</label>\r\n\t\t\t\t\t                        <div class=\"controls\">\r\n\t\t\t\t\t                        \t\t<input id=\"merchantConfigs0.value\" name=\"merchantConfigs[0].value\" type=\"text\" value=\"_____##\"/>\r\n\t\t\t\t\t\t\t\t\t\t\t        <input id=\"merchantConfigs0.key\" name=\"merchantConfigs[0].key\" type=\"hidden\" value=\"facebook_page_url\"/>\r\n\t\t\t\t\t\t\t\t\t\t\t        <input id=\"merchantConfigs0.id\" name=\"merchantConfigs[0].id\" type=\"hidden\" value=\"2\"/>\r\n\t\t\t\t\t                                <span class=\"help-inline\"></span>\r\n\t\t\t\t\t                        </div>\r\n\t                  \t\t\t\t   </div>\r\n\t\t                        \t\t\r\n\t\t                        \t\t\r\n\t                        \t\t \r\n\r\n\t\t                        \t\t\r\n\t\t                        \t   <div class=\"control-group\">\r\n\t                        \t\t\t\t<label>Google Analytics URL (UC-XXXXXX) &nbsp;:&nbsp;</label>\r\n\t\t\t\t\t                        <div class=\"controls\">\r\n\t\t\t\t\t                        \t\t<input id=\"merchantConfigs1.value\" name=\"merchantConfigs[1].value\" type=\"text\" value=\"UC-######\"/>\r\n\t\t\t\t\t\t\t\t\t\t\t        <input id=\"merchantConfigs1.key\" name=\"merchantConfigs[1].key\" type=\"hidden\" value=\"google_analytics_url\"/>\r\n\t\t\t\t\t\t\t\t\t\t\t        <input id=\"merchantConfigs1.id\" name=\"merchantConfigs[1].id\" type=\"hidden\" value=\"3\"/>\r\n\t\t\t\t\t                                <span class=\"help-inline\"></span>\r\n\t\t\t\t\t                        </div>\r\n\t                  \t\t\t\t   </div>\r\n\t\t                        \t\t\r\n\t\t                        \t\t\r\n\t                        \t\t \r\n\r\n\t\t                        \t\t\r\n\t\t                        \t   <div class=\"control-group\">\r\n\t                        \t\t\t\t<label>Instagram &nbsp;:&nbsp;</label>\r\n\t\t\t\t\t                        <div class=\"controls\">\r\n\t\t\t\t\t                        \t\t<input id=\"merchantConfigs2.value\" name=\"merchantConfigs[2].value\" type=\"text\" value=\"###___\"/>\r\n\t\t\t\t\t\t\t\t\t\t\t        <input id=\"merchantConfigs2.key\" name=\"merchantConfigs[2].key\" type=\"hidden\" value=\"instagram\"/>\r\n\t\t\t\t\t\t\t\t\t\t\t        <input id=\"merchantConfigs2.id\" name=\"merchantConfigs[2].id\" type=\"hidden\" value=\"4\"/>\r\n\t\t\t\t\t                                <span class=\"help-inline\"></span>\r\n\t\t\t\t\t                        </div>\r\n\t                  \t\t\t\t   </div>\r\n\t\t                        \t\t\r\n\t\t                        \t\t\r\n\t                        \t\t \r\n\r\n\t\t                        \t\t\r\n\t\t                        \t   <div class=\"control-group\">\r\n\t                        \t\t\t\t<label>Pinterest &nbsp;:&nbsp;</label>\r\n\t\t\t\t\t                        <div class=\"controls\">\r\n\t\t\t\t\t                        \t\t<input id=\"merchantConfigs3.value\" name=\"merchantConfigs[3].value\" type=\"text\" value=\"___####\"/>\r\n\t\t\t\t\t\t\t\t\t\t\t        <input id=\"merchantConfigs3.key\" name=\"merchantConfigs[3].key\" type=\"hidden\" value=\"pinterest\"/>\r\n\t\t\t\t\t\t\t\t\t\t\t        <input id=\"merchantConfigs3.id\" name=\"merchantConfigs[3].id\" type=\"hidden\" value=\"5\"/>\r\n\t\t\t\t\t                                <span class=\"help-inline\"></span>\r\n\t\t\t\t\t                        </div>\r\n\t                  \t\t\t\t   </div>\r\n\t\t                        \t\t\r\n\t\t                        \t\t\r\n\t                        \t\t \r\n\r\n\t\t                        \t\t\r\n\t\t                        \t   <div class=\"control-group\">\r\n\t                        \t\t\t\t<label>Twitter handle &nbsp;:&nbsp;</label>\r\n\t\t\t\t\t                        <div class=\"controls\">\r\n\t\t\t\t\t                        \t\t<input id=\"merchantConfigs4.value\" name=\"merchantConfigs[4].value\" type=\"text\" value=\"_____+++___\"/>\r\n\t\t\t\t\t\t\t\t\t\t\t        <input id=\"merchantConfigs4.key\" name=\"merchantConfigs[4].key\" type=\"hidden\" value=\"twitter_handle\"/>\r\n\t\t\t\t\t\t\t\t\t\t\t        <input id=\"merchantConfigs4.id\" name=\"merchantConfigs[4].id\" type=\"hidden\" value=\"6\"/>\r\n\t\t\t\t\t                                <span class=\"help-inline\"></span>\r\n\t\t\t\t\t                        </div>\r\n\t                  \t\t\t\t   </div>\r\n\t\t                        \t\t\r\n\t\t                        \t\t\r\n\t                        \t\t\r\n\r\n\t                        \t\t<div class=\"form-actions\">\r\n                  \t\t\t\t\t\t<div class=\"pull-right\">\r\n                  \t\t\t\t\t\t\t<button type=\"submit\" class=\"btn btn-success\">Save</button>\r\n                  \t\t\t\t\t\t</div>\r\n            \t \t\t\t\t\t</div>\r\n\t\t\t\t\t                  \r\n\r\n            \t \t\t\t</form>\r\n   \t\t</div>\r\n   \t</div>\r\n</div>\r\n\r\n\t\t\t</div>\r\n\r\n\r\n\t\t</div>\r\n\r\n\r\n\r\n  \r\n\t\t<hr> \r\n  \r\n  \r\n\t\t<footer> \r\n \t\t\t<p>&copy; Shopizer 2010-2020</p> \r\n\t\t</footer> \r\n  \r\n  \r\n\t</div> <!-- /container --> \r\n\t\r\n\r\n  \r\n</div>\r\n\r\n    <!-- Le javascript\r\n    ================================================== -->\r\n    <!-- Placed at the end of the document so the pages load faster -->\r\n    <script src=\"/resources/js/bootstrap/bootstrap-button.js\"></script>\r\n    <script src=\"/resources/js/bootstrap/bootstrap-modal.js\"></script>\r\n    <script src=\"/resources/js/bootstrap/bootstrap-tab.js\"></script>\r\n    <script src=\"/resources/js/bootstrap/bootstrap-transition.js\"></script>\r\n    <script src=\"/resources/js/bootstrap/bootstrap-alert.js\"></script>\r\n    \r\n    <script src=\"/resources/js/bootstrap/bootstrap-dropdown.js\"></script>\r\n    <script src=\"/resources/js/bootstrap/bootstrap-scrollspy.js\"></script>\r\n    \r\n    <script src=\"/resources/js/bootstrap/bootstrap-tooltip.js\"></script>\r\n    <script src=\"/resources/js/bootstrap/bootstrap-popover.js\"></script>\r\n    \r\n    <script src=\"/resources/js/bootstrap/bootstrap-collapse.js\"></script>\r\n    <script src=\"/resources/js/bootstrap/bootstrap-carousel.js\"></script>\r\n    <script src=\"/resources/js/bootstrap/bootstrap-typeahead.js\"></script>\r\n     \r\n\r\n    \r\n     \t\r\n     \t\r\n     <script>\r\n\t\r\n\t\t$(document).ready(function(){ \r\n\t\t\t\r\n\r\n\t\t\t$(\"#catalogue-categories-list-link\").click(function() {\r\n\t\t\t\twindow.location='/admin/categories/categories.html';\r\n\t\t\t});\r\n\t\t\t$(\"#catalogue-products-categories-link\").click(function() {\r\n\t\t\t\twindow.location='/admin/products/product-categories.html';\r\n\t\t\t});\r\n\t\t\t$(\"#catalogue-categories-hierarchy-link\").click(function() {\r\n\t\t\t\twindow.location='/admin/categories/hierarchy.html';\r\n\t\t\t});\r\n\t\t\t$(\"#catalogue-categories-create-link\").click(function() {\r\n  \t\t\t\twindow.location='/admin/categories/createCategory.html';\r\n\t\t\t});\r\n\t\t\t$(\"#catalogue-options-list-link\").click(function() {\r\n  \t\t\t\twindow.location='/admin/options/options.html';\r\n\t\t\t});\r\n\t\t\t$(\"#catalogue-options-create-link\").click(function() {\r\n  \t\t\t\twindow.location='/admin/options/createOption.html';\r\n\t\t\t});\r\n\t\t\t$(\"#catalogue-optionsvalues-list-link\").click(function() {\r\n  \t\t\t\twindow.location='/admin/options/optionvalues.html';\r\n\t\t\t});\r\n\t\t\t$(\"#catalogue-optionsvalues-create-link\").click(function() {\r\n  \t\t\t\twindow.location='/admin/options/createOptionValue.html';\r\n\t\t\t});\r\n\t\t\t$(\"#catalogue-featured-link\").click(function() {\r\n  \t\t\t\twindow.location='/admin/catalogue/featured/list.html';\r\n\t\t\t});\r\n\t\t\t$(\"#catalogue-products-custom-group-link\").click(function() {\r\n  \t\t\t\twindow.location='/admin/products/groups/list.html';\r\n\t\t\t});\r\n\t\t\t$(\"#manufacturer-list-link\").click(function() {\r\n  \t\t\t\twindow.location='/admin/catalogue/manufacturer/list.html';\r\n\t\t\t});\r\n\t\t\t$(\"#manufacturer-create-link\").click(function() {\r\n  \t\t\t\twindow.location='/admin/catalogue/manufacturer/create.html';\r\n\t\t\t});\r\n\t\t\t$(\"#myprofile-link\").click(function() {\r\n  \t\t\t\twindow.location='/admin/users/displayUser.html';\r\n\t\t\t});\r\n\t\t\t$(\"#user-link\").click(function() {\r\n  \t\t\t\twindow.location='/admin/users/displayUser.html';\r\n\t\t\t});\r\n\t\t\t$(\"#change-password-link\").click(function() {\r\n  \t\t\t\twindow.location='/admin/users/password.html';\r\n\t\t\t});\r\n\t\t\t$(\"#users-link\").click(function() {\r\n  \t\t\t\twindow.location='/admin/users/list.html';\r\n\t\t\t});\r\n\t\t\t$(\"#create-user-link\").click(function() {\r\n  \t\t\t\twindow.location='/admin/users/createUser.html';\r\n\t\t\t});\r\n\t\t\t$(\"#security-permissions-link\").click(function() {\r\n  \t\t\t\twindow.location='/admin/user/permissions.html';\r\n\t\t\t});\r\n\t\t\t$(\"#security-groups-link\").click(function() {\r\n  \t\t\t\twindow.location='/admin/user/groups.html';\r\n\t\t\t});\r\n\t\t\t$(\"#customer-list-link\").click(function() {\r\n  \t\t\t\twindow.location='/admin/customers/list.html';\r\n\t\t\t});\r\n\t\t\t$(\"#customer-create-link\").click(function() {\r\n  \t\t\t\twindow.location='/admin/customers/customer.html';\r\n\t\t\t});\r\n\t\t\t$(\"#customer-options-list-link\").click(function() {\r\n  \t\t\t\twindow.location='/admin/customers/options/list.html';\r\n\t\t\t});\r\n\t\t\t$(\"#customer-options-create-link\").click(function() {\r\n  \t\t\t\twindow.location='/admin/customers/options/create.html';\r\n\t\t\t});\r\n\t\t\t$(\"#customer-options-values-list-link\").click(function() {\r\n  \t\t\t\twindow.location='/admin/customers/options/values/list.html';\r\n\t\t\t});\r\n\t\t\t$(\"#customer-options-values-create-link\").click(function() {\r\n  \t\t\t\twindow.location='/admin/customers/options/values/create.html';\r\n\t\t\t});\r\n\t\t\t$(\"#customer-options-set-link\").click(function() {\r\n  \t\t\t\twindow.location='/admin/customers/optionsset/list.html';\r\n\t\t\t});\r\n\t\t\t$(\"#order-list-link\").click(function() {\r\n  \t\t\t\twindow.location='/admin/orders/list.html';\r\n\t\t\t});\r\n\t\t\t$(\"#storeDetails-link\").click(function() {\r\n  \t\t\t\twindow.location='/admin/store/store.html';\r\n\t\t\t});\r\n\t\t\t$(\"#create-store-link\").click(function() {\r\n  \t\t\t\twindow.location='/admin/store/storeCreate.html';\r\n\t\t\t});\r\n\t\t\t$(\"#store-list-link\").click(function() {\r\n  \t\t\t\twindow.location='/admin/store/list.html';\r\n\t\t\t});\r\n\t\t\t$(\"#storeBranding-link\").click(function() {\r\n  \t\t\t\twindow.location='/admin/store/storeBranding.html';\r\n\t\t\t});\r\n\t\t\t$(\"#storeLanding-link\").click(function() {\r\n  \t\t\t\twindow.location='/admin/store/storeLanding.html';\r\n\t\t\t});\r\n\t\t\t$(\"#content-link\").click(function() {\r\n  \t\t\t\twindow.location='/admin/content/contentImages.html';\r\n\t\t\t});\r\n\t\t\t$(\"#content-images-create-link\").click(function() {\r\n  \t\t\t\twindow.location='/admin/content/createContentImages.html';\r\n\t\t\t});\r\n\t\t\t$(\"#content-pages-link\").click(function() {\r\n  \t\t\t\twindow.location='/admin/content/pages/list.html';\r\n\t\t\t});\r\n\t\t\t$(\"#content-pages-create-link\").click(function() {\r\n  \t\t\t\twindow.location='/admin/content/pages/create.html';\r\n\t\t\t});\r\n\t\t\t$(\"#content-boxes-link\").click(function() {\r\n  \t\t\t\twindow.location='/admin/content/boxes/list.html';\r\n\t\t\t});\r\n\t\t\t$(\"#content-boxes-create-link\").click(function() {\r\n  \t\t\t\twindow.location='/admin/content/boxes/create.html';\r\n\t\t\t});\r\n\t\t\t$(\"#content-files-link\").click(function() {\r\n  \t\t\t\twindow.location='/admin/content/static/contentFiles.html';\r\n\t\t\t});\r\n\t\t\t$(\"#content-images-link\").click(function() {\r\n  \t\t\t\twindow.location='/admin/content/contentImages.html';\r\n\t\t\t});\r\n\t\t\t$(\"#shipping-configs-link\").click(function() {\r\n  \t\t\t\twindow.location='/admin/shipping/shippingConfigs.html';\r\n\t\t\t});\r\n\t\t\t$(\"#shipping-methods-link\").click(function() {\r\n  \t\t\t\twindow.location='/admin/shipping/shippingMethods.html';\r\n\t\t\t});\r\n\t\t\t$(\"#shipping-options-link\").click(function() {\r\n  \t\t\t\twindow.location='/admin/shipping/shippingOptions.html';\r\n\t\t\t});\r\n\t\t\t$(\"#shipping-origin-link\").click(function() {\r\n  \t\t\t\twindow.location='/admin/shipping/origin/get.html';\r\n\t\t\t});\r\n\t\t\t$(\"#shipping-packages-link\").click(function() {\r\n  \t\t\t\twindow.location='/admin/shipping/shippingPackaging.html';\r\n\t\t\t});\r\n\t\t\t$(\"#accounts-conf-link\").click(function() {\r\n  \t\t\t\twindow.location='/admin/configuration/accounts.html';\r\n\t\t\t});\r\n\t\t\t$(\"#email-conf-link\").click(function() {\r\n  \t\t\t\twindow.location='/admin/configuration/email.html';\r\n\t\t\t});\r\n\t\t\t$(\"#system-configurations-link\").click(function() {\r\n  \t\t\t\twindow.location='/admin/configuration/system.html';\r\n\t\t\t});\r\n\t\t\t$(\"#taxclass-link\").click(function() {\r\n  \t\t\t\twindow.location='/admin/tax/taxclass/list.html';\r\n\t\t\t});\r\n\t\t\t$(\"#taxconfiguration-link\").click(function() {\r\n  \t\t\t\twindow.location='/admin/tax/taxconfiguration/edit.html';\r\n\t\t\t});\r\n\t\t\t$(\"#taxrates-link\").click(function() {\r\n  \t\t\t\twindow.location='/admin/tax/taxrates/list.html';\r\n\t\t\t});\t\t\r\n\r\n\t\t}); \r\n\t\t\r\n\t\tfunction isEmpty(val){\r\n            return (val === undefined || val == null || val.length <= 0) ? true : false;\r\n        }\r\n\r\n\t\tfunction checkCode(code, id, url) {\r\n\t\t\t\r\n             if(isEmpty(code))  return ;\r\n\t\t\t\r\n\t\t\t$.ajax({\r\n\t\t\t\t\ttype: 'POST',\r\n\t\t\t\t\tdataType: \"json\",\r\n\t\t\t\t\turl: url,\r\n\t\t\t\t\tdata: \"code=\"+ code + \"&id=\" + id,\r\n\t\t\t\t\tsuccess: function(response) { \r\n\t\t\t\t\t\tvar msg = isc.XMLTools.selectObjects(response, \"/response/statusMessage\");\r\n\t\t\t\t\t\tvar status = isc.XMLTools.selectObjects(response, \"/response/status\");\r\n\t\t\t\t\t\t\r\n\t\t\t\t\t\tcallBackCheckCode(msg,status);\r\n\r\n\t\t\t\t\t\t\r\n\t\t\t\t\t},\r\n\t\t\t\t\terror: function(jqXHR,textStatus,errorThrown) { \r\n\t\t\t\t\t\talert(jqXHR + \"-\" + textStatus + \"-\" + errorThrown);\r\n\t\t\t\t\t}\r\n\t\t\t\t\t\r\n\t\t\t});\r\n\t\t\t\r\n\t\t\t\r\n\t\t\t\r\n\t\t}\r\n\t\r\n</script>\t\r\n     \t\r\n         \r\n \r\n \t</body>\r\n \r\n </html>\r\n \r\n"
          },
          "redirectURL": "",
          "headersSize": 582,
          "bodySize": 20897
        },
        "cache": {},
        "timings": {
          "blocked": 1,
          "dns": 0,
          "connect": 0,
          "ssl": 0,
          "send": 0,
          "wait": 56,
          "receive": 0
        },
        "time": 57,
        "_securityState": "insecure",
        "serverIPAddress": "::1",
        "connection": "8080"
      }
    ]
  }
}