{
  "log": {
    "entries": [
      {
        "pageref": "page_1",
        "startedDateTime": "2020-10-27T03:39:23.083+13:00",
        "request": {
          "bodySize": 84,
          "method": "POST",
          "url": "http://localhost:8080/jenkins.fuzz/j_acegi_security_check",
          "httpVersion": "HTTP/1.1",
          "headers": [
            {
              "name": "Host",
              "value": "localhost:8080"
            },
            {
              "name": "User-Agent",
              "value": "Mozilla/5.0 (Windows NT 10.0; Win64; x64; rv:78.0) Gecko/20100101 Firefox/78.0"
            },
            {
              "name": "Accept",
              "value": "text/html,application/xhtml+xml,application/xml;q=0.9,image/webp,*/*;q=0.8"
            },
            {
              "name": "Accept-Language",
              "value": "en-US,en;q=0.5"
            },
            {
              "name": "Accept-Encoding",
              "value": "gzip, deflate"
            },
            {
              "name": "Content-Type",
              "value": "application/x-www-form-urlencoded"
            },
            {
              "name": "Origin",
              "value": "http://localhost:8080"
            },
            {
              "name": "DNT",
              "value": "1"
            },
            {
              "name": "Connection",
              "value": "keep-alive"
            },
            {
              "name": "Referer",
              "value": "http://localhost:8080/login?from=%2F"
            },
            {
              "name": "Upgrade-Insecure-Requests",
              "value": "1"
            },
            {
              "name": "Pragma",
              "value": "no-cache"
            },
            {
              "name": "Cache-Control",
              "value": "no-cache"
            }
          ],
          "cookies": [],
          "queryString": [],
          "headersSize": 672,
          "postData": {
            "mimeType": "application/x-www-form-urlencoded",
            "params": [
              {
                "name": "j_username",
                "value": "admin"
              },
              {
                "name": "j_password",
                "value": "e3f13f43317f4436aab3ce1ca5e611b9"
              },
              {
                "name": "from",
                "value": "/"
              },
              {
                "name": "Submit",
                "value": "Sign in"
              }
            ],
            "text": "j_username=admin&j_password=e3f13f43317f4436aab3ce1ca5e611b9&from=%2F&Submit=Sign+in"
          }
        }
      }
    ]
  }
}